<?xml version="1.0" encoding="UTF-8" standalone="no"?>
<!-- Generator: Adobe Illustrator 23.0.6, SVG Export Plug-In . SVG Version: 6.00 Build 0)  -->

<svg
   xmlns:dc="http://purl.org/dc/elements/1.1/"
   xmlns:cc="http://creativecommons.org/ns#"
   xmlns:rdf="http://www.w3.org/1999/02/22-rdf-syntax-ns#"
   xmlns:svg="http://www.w3.org/2000/svg"
   xmlns="http://www.w3.org/2000/svg"
   xmlns:sodipodi="http://sodipodi.sourceforge.net/DTD/sodipodi-0.dtd"
   xmlns:inkscape="http://www.inkscape.org/namespaces/inkscape"
   version="1.1"
   id="katman_1"
   x="0px"
   y="0px"
   viewBox="0 0 2000 2000"
   style="enable-background:new 0 0 2000 2000;"
   xml:space="preserve"
   sodipodi:docname="beehive.svg"
   inkscape:version="0.92.5 (2060ec1f9f, 2020-04-08)"><metadata
   id="metadata81"><rdf:RDF><cc:Work
       rdf:about=""><dc:format>image/svg+xml</dc:format><dc:type
         rdf:resource="http://purl.org/dc/dcmitype/StillImage" /></cc:Work></rdf:RDF></metadata><defs
   id="defs79" /><sodipodi:namedview
   pagecolor="#ffffff"
   bordercolor="#666666"
   borderopacity="1"
   objecttolerance="10"
   gridtolerance="10"
   guidetolerance="10"
   inkscape:pageopacity="0"
   inkscape:pageshadow="2"
   inkscape:window-width="958"
   inkscape:window-height="518"
   id="namedview77"
   showgrid="false"
   inkscape:zoom="0.118"
   inkscape:cx="797.15757"
   inkscape:cy="1088.2156"
   inkscape:window-x="1920"
   inkscape:window-y="20"
   inkscape:window-maximized="0"
   inkscape:current-layer="katman_1" />
<style
   type="text/css"
   id="style2">
	.st0{fill:url(#SVGID_1_);}
	.st1{fill:url(#SVGID_2_);}
	.st2{fill:url(#SVGID_3_);}
	.st3{fill:url(#SVGID_4_);}
	.st4{fill:url(#SVGID_5_);}
	.st5{fill:url(#SVGID_6_);}
	.st6{fill:url(#SVGID_7_);}
	.st7{fill:url(#SVGID_8_);}
</style>
<linearGradient
   id="SVGID_1_"
   gradientUnits="userSpaceOnUse"
   x1="1190.1074"
   y1="1104.7598"
   x2="1304.7725"
   y2="1104.7598"
   gradientTransform="matrix(1.6169572,0,0,1.5462749,-600.00787,-509.81618)">
	<stop
   offset="0"
   style="stop-color:#FBB416"
   id="stop4" />
	<stop
   offset="0.5"
   style="stop-color:#FBBE16"
   id="stop6" />
	<stop
   offset="1"
   style="stop-color:#FBB416"
   id="stop8" />
</linearGradient>
<path
   class="st0"
   d="m 1417.0492,1044.5922 c -23.5913,0 -46.2449,15.2308 -63.7566,42.8781 -18.6597,29.4566 -28.9436,68.8711 -28.9436,110.9762 0,42.1051 10.2839,81.5196 28.9436,110.9761 17.5117,27.6475 40.1653,42.8783 63.7566,42.8783 23.5915,0 46.245,-15.2308 63.7566,-42.8783 18.6598,-29.4565 28.9436,-68.871 28.9436,-110.9761 0,-42.1051 -10.2838,-81.5196 -28.9436,-110.9762 -17.5116,-27.6473 -40.1651,-42.8781 -63.7566,-42.8781 z"
   id="path11"
   style="fill:url(#SVGID_1_);stroke-width:1.58122122"
   inkscape:connector-curvature="0" />
<linearGradient
   id="SVGID_2_"
   gradientUnits="userSpaceOnUse"
   x1="808.4863"
   y1="647.4987"
   x2="1191.5137"
   y2="647.4987"
   gradientTransform="matrix(1.6169572,0,0,1.5462749,-600.00787,-509.81618)">
	<stop
   offset="0"
   style="stop-color:#FBB416"
   id="stop13" />
	<stop
   offset="0.5"
   style="stop-color:#FBBE16"
   id="stop15" />
	<stop
   offset="1"
   style="stop-color:#FBB416"
   id="stop17" />
</linearGradient>
<path
   class="st1"
   d="m 1150.8334,374.43657 c -58.0649,-16.42144 -110.8909,-17.1018 -126.5108,-16.85439 l -7.3733,7.31388 -7.3732,-7.31388 c -15.70084,-0.21649 -69.01184,0.47934 -127.17374,17.03994 -89.5795,25.49808 -148.48524,74.90156 -175.13269,146.8652 2.05354,6.69537 10.36469,26.34852 40.97369,47.03767 35.2497,23.81264 107.2528,52.92899 250.1271,56.39265 h 0.1941 c 5.74024,0.23194 11.90074,0.32472 18.30384,0.29379 6.5488,0.0464 12.7093,-0.0619 18.4495,-0.29379 h 0.1941 c 142.8743,-3.46366 214.8775,-32.58001 250.1271,-56.39265 30.609,-20.68915 38.9364,-40.3423 40.9737,-47.03767 -26.6959,-72.13373 -85.8281,-121.59906 -175.7794,-147.05075 z"
   id="path20"
   style="fill:url(#SVGID_2_);stroke-width:1.58122122"
   inkscape:connector-curvature="0" />
<linearGradient
   id="SVGID_3_"
   gradientUnits="userSpaceOnUse"
   x1="703.9429"
   y1="776.311"
   x2="1296.0571"
   y2="776.311"
   gradientTransform="matrix(1.6169572,0,0,1.5462749,-600.00787,-509.81618)">
	<stop
   offset="0"
   style="stop-color:#FBB416"
   id="stop22" />
	<stop
   offset="0.5"
   style="stop-color:#FBBE16"
   id="stop24" />
	<stop
   offset="1"
   style="stop-color:#FBB416"
   id="stop26" />
</linearGradient>
<path
   class="st2"
   d="m 1016.9493,844.67427 h 0.113 c 14.019,0.1236 25.4024,0.062 33.3255,-0.031 l -0.033,-0.5258 12.5476,-0.4175 c 124.4734,-4.1131 343.555,-23.2405 412.3565,-105.17758 17.7865,-21.1685 23.8501,-44.76465 18.5465,-72.14919 v 0 c -11.3025,-58.34094 -60.7491,-101.93043 -147.0137,-129.65514 -15.3774,32.10066 -75.997,105.03845 -309.9061,110.74421 -6.0959,0.2474 -12.6122,0.34017 -19.3549,0.30925 -6.6134,0.0309 -13.1298,-0.0619 -19.20954,-0.30925 -234.814,-5.72127 -294.981,-78.82913 -310.11572,-111.08442 -86.95995,27.69377 -136.76223,71.3915 -148.11327,129.99531 -5.30362,27.36907 0.75996,50.96523 18.54649,72.14919 68.80153,81.93712 287.8831,101.06452 412.3564,105.17762 l 12.5315,0.4175 -0.033,0.5257 c 7.9393,0.093 19.32274,0.1547 33.35794,0.031 z"
   id="path29"
   style="fill:url(#SVGID_3_);stroke-width:1.58122122"
   inkscape:connector-curvature="0" />
<linearGradient
   id="SVGID_4_"
   gradientUnits="userSpaceOnUse"
   x1="729.0972"
   y1="1376.3722"
   x2="1270.8887"
   y2="1376.3722"
   gradientTransform="matrix(1.6169572,0,0,1.5462749,-600.00787,-509.81618)">
	<stop
   offset="0"
   style="stop-color:#FBB416"
   id="stop31" />
	<stop
   offset="0.5"
   style="stop-color:#FBBE16"
   id="stop33" />
	<stop
   offset="1"
   style="stop-color:#FBB416"
   id="stop35" />
</linearGradient>
<path
   class="st3"
   d="m 1016.9493,1715.3662 h 0.097 c 26.1624,0.2165 49.5598,-0.8969 67.6373,-3.1854 l 0.5175,-0.062 c 84.5829,-7.1747 288.934,-36.9406 359.3849,-157.9984 6.581,-11.3033 10.025,-21.8799 10.397,-31.977 -136.5198,63.1498 -316.1798,80.2362 -404.6435,80.2362 -0.4851,0 -0.9702,0 -1.4392,0 h -73.53924 v -0.062 c -92.2151,-1.1906 -264.48566,-19.3439 -396.42937,-80.8547 0.22638,10.2982 3.68668,21.0912 10.41322,32.6419 70.45082,121.0579 274.80185,150.8237 359.38495,157.9984 l 0.5174,0.062 c 18.0776,2.2885 41.4587,3.4019 67.63734,3.1853 h 0.065 z"
   id="path38"
   style="fill:url(#SVGID_4_);stroke-width:1.58122122"
   inkscape:connector-curvature="0" />
<linearGradient
   id="SVGID_5_"
   gradientUnits="userSpaceOnUse"
   x1="587.9197"
   y1="1082.5522"
   x2="1207.0933"
   y2="1082.5522"
   gradientTransform="matrix(1.6169572,0,0,1.5462749,-600.00787,-509.81618)">
	<stop
   offset="0"
   style="stop-color:#FBB416"
   id="stop40" />
	<stop
   offset="0.5"
   style="stop-color:#FBBE16"
   id="stop42" />
	<stop
   offset="1"
   style="stop-color:#FBB416"
   id="stop44" />
</linearGradient>
<path
   class="st4"
   d="m 1332.919,1321.7774 c -20.9397,-33.0285 -32.4523,-76.7262 -32.4523,-123.0063 0,-37.6826 7.6481,-73.649 21.7804,-103.5385 -53.0847,9.5869 -112.5565,17.3183 -178.3989,23.1323 -33.3093,7.5768 -75.7706,10.3909 -126.2521,8.3808 -50.46524,2.0101 -92.94274,-0.804 -126.25204,-8.3808 -271.13137,-23.9363 -434.49255,-80.0815 -486.10583,-167.01313 -31.11025,26.7815 -48.91295,57.61423 -52.98768,91.81783 -7.68055,64.4487 11.94931,121.8773 58.35598,170.6469 96.46766,101.4202 310.98938,163.0546 564.05933,163.0546 9.3784,0 18.7891,-0.078 28.26444,-0.2473 4.3012,-0.078 8.6184,-0.2629 13.1782,-0.5721 l 0.8408,-0.062 0.8409,0.062 c 4.5598,0.3092 8.8771,0.4793 13.1782,0.5721 116.9222,2.1028 226.3901,-8.8448 320.8366,-30.7555 -6.775,-6.9273 -13.0974,-14.9679 -18.886,-24.0909 z"
   id="path47"
   style="fill:url(#SVGID_5_);stroke-width:1.58122122"
   inkscape:connector-curvature="0" />
<linearGradient
   id="SVGID_6_"
   gradientUnits="userSpaceOnUse"
   x1="1289.0637"
   y1="1054.0281"
   x2="1412.0795"
   y2="1054.0281"
   gradientTransform="matrix(1.6169572,0,0,1.5462749,-600.00787,-509.81618)">
	<stop
   offset="0"
   style="stop-color:#FBB416"
   id="stop49" />
	<stop
   offset="0.5"
   style="stop-color:#FBBE16"
   id="stop51" />
	<stop
   offset="1"
   style="stop-color:#FBB416"
   id="stop53" />
</linearGradient>
<path
   class="st5"
   d="m 1681.6481,1043.154 c -4.0424,-33.8942 -21.554,-64.47963 -52.1307,-91.09103 -24.3191,40.3733 -72.844,74.08213 -145.1542,100.97183 6.2738,6.6026 12.1595,14.1948 17.5601,22.7148 20.9396,33.0439 32.4523,76.7261 32.4523,123.0061 0,31.8224 -5.4492,62.4077 -15.6521,89.1582 42.6714,-21.4004 78.0667,-46.2645 104.5687,-74.1284 46.3904,-48.754 66.0364,-106.1672 58.3559,-170.6315 z"
   id="path56"
   style="fill:url(#SVGID_6_);stroke-width:1.58122122"
   inkscape:connector-curvature="0" />
<linearGradient
   id="SVGID_7_"
   gradientUnits="userSpaceOnUse"
   x1="629.018"
   y1="1246.8164"
   x2="1370.9822"
   y2="1246.8164"
   gradientTransform="matrix(1.6169572,0,0,1.5462749,-600.00787,-509.81618)">
	<stop
   offset="0"
   style="stop-color:#FBB416"
   id="stop58" />
	<stop
   offset="0.5"
   style="stop-color:#FBBE16"
   id="stop60" />
	<stop
   offset="1"
   style="stop-color:#FBB416"
   id="stop62" />
</linearGradient>
<path
   class="st6"
   d="m 998.87176,1578.892 h 49.28494 c 0.5011,0 1.0025,0 1.5037,0 78.7135,0 209.8811,-13.128 323.1813,-50.2694 147.3047,-48.2903 228.9773,-122.6815 242.7375,-221.1328 2.4901,-17.8441 1.148,-34.5438 -3.9776,-49.8519 -30.221,24.6321 -67.3949,46.6202 -110.794,65.5311 -21.9744,33.8326 -51.4839,52.4188 -83.435,52.4188 -14.1483,0 -27.8925,-3.6802 -40.9252,-10.9322 -102.4989,25.6682 -221.8789,38.0384 -345.6731,35.8272 -4.4467,-0.078 -8.8932,-0.2629 -13.5663,-0.5567 -4.673,0.2938 -9.1034,0.4794 -13.5662,0.5567 -120.88374,2.1493 -238.09704,-9.6488 -338.99513,-34.1727 -103.16186,-25.0651 -184.54332,-61.6963 -242.25252,-108.9815 -5.22277,15.401 -6.59718,32.2089 -4.0909,50.1767 13.79264,98.6523 95.77237,173.1518 243.62694,221.4265 113.15467,36.9406 243.54607,49.9756 322.14647,49.9756 0.873,0 1.7462,0 2.6032,0 l 12.1757,-0.046 v 0.031 z"
   id="path65"
   style="fill:url(#SVGID_7_);stroke-width:1.58122122"
   inkscape:connector-curvature="0" />
<linearGradient
   id="SVGID_8_"
   gradientUnits="userSpaceOnUse"
   x1="625.4719"
   y1="928.0286"
   x2="1374.5502"
   y2="928.0286"
   gradientTransform="matrix(1.6169572,0,0,1.5462749,-600.00787,-509.81618)">
	<stop
   offset="0"
   style="stop-color:#FBB416"
   id="stop67" />
	<stop
   offset="0.5"
   style="stop-color:#FBBE16"
   id="stop69" />
	<stop
   offset="1"
   style="stop-color:#FBB416"
   id="stop71" />
</linearGradient>
<path
   class="st7"
   d="m 1016.9493,1104.2629 0.5175,0.015 c 48.8806,1.9791 89.5632,-0.6804 120.8999,-7.9324 l 0.8569,-0.201 0.8732,-0.078 c 73.3128,-6.4479 139.5111,-15.4163 196.8484,-26.6733 21.6349,-30.9564 50.0448,-47.919 80.4112,-47.919 16.1373,0 32.2099,4.9945 46.8271,14.4886 82.1091,-28.807 132.8816,-65.48473 150.943,-109.08973 13.0973,-31.6367 8.9094,-67.8196 -12.4668,-107.5743 v 0 c -16.3312,-30.35337 -50.5137,-55.06285 -101.658,-73.5099 -29.7198,41.7958 -93.3309,73.5408 -189.3458,94.4465 -80.6376,17.5502 -170.0391,24.3693 -234.7337,26.9206 l 0.065,0.8041 -12.5638,0.3711 c -0.7276,0.015 -18.1422,0.5257 -46.7947,0.2628 -28.66864,0.2475 -46.06724,-0.2474 -46.79474,-0.2628 l -12.5962,-0.3711 0.064,-0.8041 c -64.8075,-2.5659 -154.3223,-9.385 -235.02462,-26.9816 -96.1281,-20.9675 -159.72302,-52.8053 -189.29718,-94.74027 -51.74262,18.47798 -86.26465,43.31116 -102.70911,73.86557 -24.14117,44.8883 -26.30789,85.1997 -6.45167,119.8054 45.77607,79.72603 207.95687,134.01563 468.99838,156.96233 l 0.8732,0.078 0.857,0.201 c 31.3527,7.252 72.0193,9.9115 120.89994,7.9324 z"
   id="path74"
   style="fill:url(#SVGID_8_);stroke-width:1.58122122"
   inkscape:connector-curvature="0" />
</svg>