<?xml version="1.0" encoding="utf-8"?>
<!-- Generator: Adobe Illustrator 23.0.6, SVG Export Plug-In . SVG Version: 6.00 Build 0)  -->
<svg version="1.1" id="katman_1" xmlns="http://www.w3.org/2000/svg" xmlns:xlink="http://www.w3.org/1999/xlink" x="0px" y="0px"
	 viewBox="0 0 2000 2000" style="enable-background:new 0 0 2000 2000;" xml:space="preserve">
<style type="text/css">
	.st0{fill:url(#SVGID_1_);}
	.st1{fill:url(#SVGID_2_);}
	.st2{fill:url(#SVGID_3_);}
	.st3{fill:url(#SVGID_4_);}
	.st4{fill:url(#SVGID_5_);}
	.st5{fill:url(#SVGID_6_);}
	.st6{fill:url(#SVGID_7_);}
	.st7{fill:url(#SVGID_8_);}
</style>
<linearGradient id="SVGID_1_" gradientUnits="userSpaceOnUse" x1="1190.1074" y1="1104.7598" x2="1304.7725" y2="1104.7598">
	<stop  offset="0" style="stop-color:#FBB416"/>
	<stop  offset="0.5" style="stop-color:#FBBE16"/>
	<stop  offset="1" style="stop-color:#FBB416"/>
</linearGradient>
<path class="st0" d="M1247.44,1005.26c-14.59,0-28.6,9.85-39.43,27.73c-11.54,19.05-17.9,44.54-17.9,71.77s6.36,52.72,17.9,71.77
	c10.83,17.88,24.84,27.73,39.43,27.73s28.6-9.85,39.43-27.73c11.54-19.05,17.9-44.54,17.9-71.77s-6.36-52.72-17.9-71.77
	C1276.04,1015.11,1262.03,1005.26,1247.44,1005.26z"/>
<linearGradient id="SVGID_2_" gradientUnits="userSpaceOnUse" x1="808.4863" y1="647.4987" x2="1191.5137" y2="647.4987">
	<stop  offset="0" style="stop-color:#FBB416"/>
	<stop  offset="0.5" style="stop-color:#FBBE16"/>
	<stop  offset="1" style="stop-color:#FBB416"/>
</linearGradient>
<path class="st1" d="M1082.8,571.86c-35.91-10.62-68.58-11.06-78.24-10.9l-4.56,4.73l-4.56-4.73c-9.71-0.14-42.68,0.31-78.65,11.02
	c-55.4,16.49-91.83,48.44-108.31,94.98c1.27,4.33,6.41,17.04,25.34,30.42c21.8,15.4,66.33,34.23,154.69,36.47l0.12,0
	c3.55,0.15,7.36,0.21,11.32,0.19c4.05,0.03,7.86-0.04,11.41-0.19l0.12,0c88.36-2.24,132.89-21.07,154.69-36.47
	c18.93-13.38,24.08-26.09,25.34-30.42C1175,620.31,1138.43,588.32,1082.8,571.86z"/>
<linearGradient id="SVGID_3_" gradientUnits="userSpaceOnUse" x1="703.9429" y1="776.311" x2="1296.0571" y2="776.311">
	<stop  offset="0" style="stop-color:#FBB416"/>
	<stop  offset="0.5" style="stop-color:#FBBE16"/>
	<stop  offset="1" style="stop-color:#FBB416"/>
</linearGradient>
<path class="st2" d="M1000,875.97h0.07c8.67,0.08,15.71,0.04,20.61-0.02l-0.02-0.34l7.76-0.27c76.98-2.66,212.47-15.03,255.02-68.02
	c11-13.69,14.75-28.95,11.47-46.66v0c-6.99-37.73-37.57-65.92-90.92-83.85c-9.51,20.76-47,67.93-191.66,71.62
	c-3.77,0.16-7.8,0.22-11.97,0.2c-4.09,0.02-8.12-0.04-11.88-0.2c-145.22-3.7-182.43-50.98-191.79-71.84
	c-53.78,17.91-84.58,46.17-91.6,84.07c-3.28,17.7,0.47,32.96,11.47,46.66c42.55,52.99,178.04,65.36,255.02,68.02l7.75,0.27
	l-0.02,0.34c4.91,0.06,11.95,0.1,20.63,0.02H1000z"/>
<linearGradient id="SVGID_4_" gradientUnits="userSpaceOnUse" x1="729.0972" y1="1376.3722" x2="1270.8887" y2="1376.3722">
	<stop  offset="0" style="stop-color:#FBB416"/>
	<stop  offset="0.5" style="stop-color:#FBBE16"/>
	<stop  offset="1" style="stop-color:#FBB416"/>
</linearGradient>
<path class="st3" d="M1000,1439.06h0.06c16.18,0.14,30.65-0.58,41.83-2.06l0.32-0.04c52.31-4.64,178.69-23.89,222.26-102.18
	c4.07-7.31,6.2-14.15,6.43-20.68c-84.43,40.84-195.54,51.89-250.25,51.89c-0.3,0-0.6,0-0.89,0l-45.48,0v-0.04
	c-57.03-0.77-163.57-12.51-245.17-52.29c0.14,6.66,2.28,13.64,6.44,21.11c43.57,78.29,169.95,97.54,222.26,102.18l0.32,0.04
	c11.18,1.48,25.64,2.2,41.83,2.06H1000z"/>
<linearGradient id="SVGID_5_" gradientUnits="userSpaceOnUse" x1="587.9197" y1="1082.5522" x2="1207.0933" y2="1082.5522">
	<stop  offset="0" style="stop-color:#FBB416"/>
	<stop  offset="0.5" style="stop-color:#FBBE16"/>
	<stop  offset="1" style="stop-color:#FBB416"/>
</linearGradient>
<path class="st4" d="M1195.41,1184.52c-12.95-21.36-20.07-49.62-20.07-79.55c0-24.37,4.73-47.63,13.47-66.96
	c-32.83,6.2-69.61,11.2-110.33,14.96c-20.6,4.9-46.86,6.72-78.08,5.42c-31.21,1.3-57.48-0.52-78.08-5.42
	c-167.68-15.48-268.71-51.79-300.63-108.01c-19.24,17.32-30.25,37.26-32.77,59.38c-4.75,41.68,7.39,78.82,36.09,110.36
	c59.66,65.59,192.33,105.45,348.84,105.45c5.8,0,11.62-0.05,17.48-0.16c2.66-0.05,5.33-0.17,8.15-0.37l0.52-0.04l0.52,0.04
	c2.82,0.2,5.49,0.31,8.15,0.37c72.31,1.36,140.01-5.72,198.42-19.89C1202.9,1195.62,1198.99,1190.42,1195.41,1184.52z"/>
<linearGradient id="SVGID_6_" gradientUnits="userSpaceOnUse" x1="1289.0637" y1="1054.0281" x2="1412.0795" y2="1054.0281">
	<stop  offset="0" style="stop-color:#FBB416"/>
	<stop  offset="0.5" style="stop-color:#FBBE16"/>
	<stop  offset="1" style="stop-color:#FBB416"/>
</linearGradient>
<path class="st5" d="M1411.08,1004.33c-2.5-21.92-13.33-41.7-32.24-58.91c-15.04,26.11-45.05,47.91-89.77,65.3
	c3.88,4.27,7.52,9.18,10.86,14.69c12.95,21.37,20.07,49.62,20.07,79.55c0,20.58-3.37,40.36-9.68,57.66
	c26.39-13.84,48.28-29.92,64.67-47.94C1403.68,1083.15,1415.83,1046.02,1411.08,1004.33z"/>
<linearGradient id="SVGID_7_" gradientUnits="userSpaceOnUse" x1="629.018" y1="1246.8164" x2="1370.9822" y2="1246.8164">
	<stop  offset="0" style="stop-color:#FBB416"/>
	<stop  offset="0.5" style="stop-color:#FBBE16"/>
	<stop  offset="1" style="stop-color:#FBB416"/>
</linearGradient>
<path class="st6" d="M988.82,1350.8h30.48c0.31,0,0.62,0,0.93,0c48.68,0,129.8-8.49,199.87-32.51
	c91.1-31.23,141.61-79.34,150.12-143.01c1.54-11.54,0.71-22.34-2.46-32.24c-18.69,15.93-41.68,30.15-68.52,42.38
	c-13.59,21.88-31.84,33.9-51.6,33.9c-8.75,0-17.25-2.38-25.31-7.07c-63.39,16.6-137.22,24.6-213.78,23.17
	c-2.75-0.05-5.5-0.17-8.39-0.36c-2.89,0.19-5.63,0.31-8.39,0.36c-74.76,1.39-147.25-6.24-209.65-22.1
	c-63.8-16.21-114.13-39.9-149.82-70.48c-3.23,9.96-4.08,20.83-2.53,32.45c8.53,63.8,59.23,111.98,150.67,143.2
	c69.98,23.89,150.62,32.32,199.23,32.32c0.54,0,1.08,0,1.61,0l7.53-0.03V1350.8z"/>
<linearGradient id="SVGID_8_" gradientUnits="userSpaceOnUse" x1="625.4719" y1="928.0286" x2="1374.5502" y2="928.0286">
	<stop  offset="0" style="stop-color:#FBB416"/>
	<stop  offset="0.5" style="stop-color:#FBBE16"/>
	<stop  offset="1" style="stop-color:#FBB416"/>
</linearGradient>
<path class="st7" d="M1000,1043.85l0.32,0.01c30.23,1.28,55.39-0.44,74.77-5.13l0.53-0.13l0.54-0.05
	c45.34-4.17,86.28-9.97,121.74-17.25c13.38-20.02,30.95-30.99,49.73-30.99c9.98,0,19.92,3.23,28.96,9.37
	c50.78-18.63,82.18-42.35,93.35-70.55c8.1-20.46,5.51-43.86-7.71-69.57l0,0c-10.1-19.63-31.24-35.61-62.87-47.54
	c-18.38,27.03-57.72,47.56-117.1,61.08c-49.87,11.35-105.16,15.76-145.17,17.41l0.04,0.52l-7.77,0.24
	c-0.45,0.01-11.22,0.34-28.94,0.17c-17.73,0.16-28.49-0.16-28.94-0.17l-7.79-0.24l0.04-0.52c-40.08-1.66-95.44-6.07-145.35-17.45
	c-59.45-13.56-98.78-34.15-117.07-61.27c-32,11.95-53.35,28.01-63.52,47.77c-14.93,29.03-16.27,55.1-3.99,77.48
	c28.31,51.56,128.61,86.67,290.05,101.51l0.54,0.05l0.53,0.13c19.39,4.69,44.54,6.41,74.77,5.13L1000,1043.85z"/>
</svg>
